{
  "page": 1,
  "total_results": 528,
  "total_pages": 27,
  "results": [
    {
      "original_name": "The Walking Dead: World Beyond",
      "genre_ids": [
        18,
        10765
      ],
      "name": "The Walking Dead: World Beyond",
      "popularity": 778.639,
      "origin_country": [
        "US"
      ],
      "vote_count": 144,
      "first_air_date": "2020-10-04",
      "backdrop_path": "/pLVrN9B750ehwTFdQ6n3HRUERLd.jpg",
      "original_language": "en",
      "id": 94305,
      "vote_average": 7.8,
      "overview": "A heroic group of teens sheltered from the dangers of the post-apocalyptic world leave the safety of the only home they have ever known and embark on a cross-country journey to find the one man who can possibly save the world.",
      "poster_path": "/z31GxpVgDsFAF4paZR8PRsiP16D.jpg"
    },
    {
      "original_name": "Fear the Walking Dead",
      "genre_ids": [
        18,
        10759
      ],
      "name": "Fear the Walking Dead",
      "popularity": 476.235,
      "origin_country": [
        "US"
      ],
      "vote_count": 2184,
      "first_air_date": "2015-08-23",
      "backdrop_path": "/58PON1OrnBiX6CqEHgeWKVwrCn6.jpg",
      "original_language": "en",
      "id": 62286,
      "vote_average": 7.3,
      "overview": "What did the world look like as it was transforming into the horrifying apocalypse depicted in \"The Walking Dead\"? This spin-off set in Los Angeles, following new characters as they face the beginning of the end of the world, will answer that question.",
      "poster_path": "/wGFUewXPeMErCe2xnCmmLEiHOGh.jpg"
    },
    {
      "original_name": "The Simpsons",
      "genre_ids": [
        16,
        35,
        18,
        10751
      ],
      "name": "The Simpsons",
      "popularity": 351.928,
      "origin_country": [
        "US"
      ],
      "vote_count": 4849,
      "first_air_date": "1989-12-16",
      "backdrop_path": "/adZ9ldSlkGfLfsHNbh37ZThCcgU.jpg",
      "original_language": "en",
      "id": 456,
      "vote_average": 7.7,
      "overview": "Set in Springfield, the average American town, the show focuses on the antics and everyday adventures of the Simpson family; Homer, Marge, Bart, Lisa and Maggie, as well as a virtual cast of thousands. Since the beginning, the series has been a pop culture icon, attracting hundreds of celebrities to guest star. The show has also made name for itself in its fearless satirical take on politics, media and American life in general.",
      "poster_path": "/qcr9bBY6MVeLzriKCmJOv1562uY.jpg"
    },
    {
      "original_name": "We Are Who We Are",
      "genre_ids": [
        18
      ],
      "name": "We Are Who We Are",
      "popularity": 256.486,
      "origin_country": [
        "US"
      ],
      "vote_count": 8,
      "first_air_date": "2020-09-14",
      "backdrop_path": "/ioxGhd9jtJT8qGQHuhuodlqaGmX.jpg",
      "original_language": "en",
      "id": 88713,
      "vote_average": 7.5,
      "overview": "Two American kids who live on a U.S. military base in Italy explore friendship, first love, identity, and all the messy exhilaration and anguish of being a teenager.",
      "poster_path": "/33btSKKmjmc24hK9Vj1sRWQGfyh.jpg"
    },
    {
      "original_name": "Family Guy",
      "genre_ids": [
        16,
        35
      ],
      "name": "Family Guy",
      "popularity": 175.418,
      "origin_country": [
        "US"
      ],
      "vote_count": 2357,
      "first_air_date": "1999-01-31",
      "backdrop_path": "/4oE4vT4q0AD2cX3wcMBVzCsME8G.jpg",
      "original_language": "en",
      "id": 1434,
      "vote_average": 6.8,
      "overview": "Sick, twisted, politically incorrect and Freakin' Sweet animated series featuring the adventures of the dysfunctional Griffin family. Bumbling Peter and long-suffering Lois have three kids. Stewie (a brilliant but sadistic baby bent on killing his mother and taking over the world), Meg (the oldest, and is the most unpopular girl in town) and Chris (the middle kid, he's not very bright but has a passion for movies). The final member of the family is Brian - a talking dog and much more than a pet, he keeps Stewie in check whilst sipping Martinis and sorting through his own life issues.",
      "poster_path": "/q3E71oY6qgAEiw6YZIHDlHSLwer.jpg"
    },
    {
      "original_name": "Lovecraft Country",
      "genre_ids": [
        18,
        9648,
        10765
      ],
      "name": "Lovecraft Country",
      "popularity": 167.144,
      "origin_country": [
        "US"
      ],
      "vote_count": 209,
      "first_air_date": "2020-08-16",
      "backdrop_path": "/qx7qy2GJOc7yGY6WENyBU3OVv7A.jpg",
      "original_language": "en",
      "id": 82816,
      "vote_average": 7.2,
      "overview": "The anthology horror series follows 25-year-old Atticus Freeman, who joins up with his friend Letitia and his Uncle George to embark on a road trip across 1950s Jim Crow America to find his missing father. They must survive and overcome both the racist terrors of white America and the malevolent spirits that could be ripped from a Lovecraft paperback.",
      "poster_path": "/fz7bdjxPColvEWCGr5Kiclzc86d.jpg"
    },
    {
      "original_name": "Veneno",
      "genre_ids": [
        35,
        99,
        18
      ],
      "name": "Veneno",
      "popularity": 171.411,
      "origin_country": [
        "ES"
      ],
      "vote_count": 11,
      "first_air_date": "2020-03-29",
      "backdrop_path": "/jD70hQEvoJDobVEZTdmErHSwkox.jpg",
      "original_language": "es",
      "id": 100834,
      "vote_average": 3.2,
      "overview": "",
      "poster_path": "/uKrpNLCoJDPAINIah4PBsFYbA9.jpg"
    },
    {
      "original_name": "Patria",
      "genre_ids": [
        80,
        18
      ],
      "name": "Patria",
      "popularity": 130.585,
      "origin_country": [
        "ES"
      ],
      "vote_count": 32,
      "first_air_date": "2020-09-27",
      "backdrop_path": "/2FdeV6TxG02XL5nBF9NUvoi1BkW.jpg",
      "original_language": "es",
      "id": 85964,
      "vote_average": 6.8,
      "overview": "A look at the impact of Spain’s Basque conflict on ordinary people on both sides, such as the widow of a man killed by the ETA who returns to her home village after the 2011 ceasefire between the separatist group and the Spanish government, and her former intimate friend, the mother of a jailed terrorist.",
      "poster_path": "/yTvhNt0QxXG7ww5hrUQwFtQoKIw.jpg"
    },
    {
      "original_name": "The Graham Norton Show",
      "genre_ids": [
        35,
        10767
      ],
      "name": "The Graham Norton Show",
      "popularity": 104.263,
      "origin_country": [
        "GB"
      ],
      "vote_count": 141,
      "first_air_date": "2007-02-22",
      "backdrop_path": "/2pJYis3LUEgFC3UErTQVgmUV1hN.jpg",
      "original_language": "en",
      "id": 1220,
      "vote_average": 7.1,
      "overview": "Each week celebrity guests join Irish comedian Graham Norton to discuss what's being going on around the world that week. The guests poke fun and share their opinions on the main news stories. Graham is often joined by a band or artist to play the show out.",
      "poster_path": "/vrbqaBXB8AALynQzpWz6JdCPEJS.jpg"
    },
    {
      "original_name": "The Spanish Princess",
      "genre_ids": [
        18
      ],
      "name": "The Spanish Princess",
      "popularity": 142.022,
      "origin_country": [
        "GB",
        "US"
      ],
      "vote_count": 204,
      "first_air_date": "2019-05-05",
      "backdrop_path": "/eqOAW52GkgbMDGIzpqlz8zwTIiO.jpg",
      "original_language": "en",
      "id": 86428,
      "vote_average": 7.6,
      "overview": "The beautiful Spanish princess, Catherine of Aragon, navigates the royal lineage of England with an eye on the throne.",
      "poster_path": "/4Ec0jIkctpiyKuywPSRj4Pd2jEl.jpg"
    },
    {
      "original_name": "ポケットモンスター",
      "genre_ids": [
        16,
        10759,
        10765
      ],
      "name": "Pokémon",
      "popularity": 84.55,
      "origin_country": [
        "JP"
      ],
      "vote_count": 417,
      "first_air_date": "1997-04-01",
      "backdrop_path": "/tvjCdVRkaaab2ezM9BctkAOXeyW.jpg",
      "original_language": "ja",
      "id": 60572,
      "vote_average": 6.7,
      "overview": "Join Satoshi, accompanied by his partner Pikachu, as he travels through many regions, meets new friends and faces new challenges on his quest to become a Pokémon Master.",
      "poster_path": "/rOuGm07PxBhEsK9TaGPRQVJQm1X.jpg"
    },
    {
      "original_name": "The Third Day",
      "genre_ids": [
        18,
        9648,
        10765
      ],
      "name": "The Third Day",
      "popularity": 110.947,
      "origin_country": [
        "US"
      ],
      "vote_count": 35,
      "first_air_date": "2020-09-14",
      "backdrop_path": "/yEvcaFO2nz8QdGVsqyVK93iLPp3.jpg",
      "original_language": "en",
      "id": 90259,
      "vote_average": 6.8,
      "overview": "A unique story told over two distinct halves, \"Summer\" follows Sam, a man drawn to a mysterious island off the British coast where he encounters a group of islanders set on preserving their traditions at any cost. \"Winter\" follows Helen, a strong-willed outsider who comes to the island seeking answers, but whose arrival precipitates a fractious battle to decide its fate.",
      "poster_path": "/rNx7hgp3Cs6YPeBgvE6enNmR1Xz.jpg"
    },
    {
      "original_name": "Star Trek: Discovery",
      "genre_ids": [
        10759,
        10765
      ],
      "name": "Star Trek: Discovery",
      "popularity": 80.773,
      "origin_country": [
        "US"
      ],
      "vote_count": 786,
      "first_air_date": "2017-09-24",
      "backdrop_path": "/p3McpsDNTNmpbkNBKdNxOFZJeKX.jpg",
      "original_language": "en",
      "id": 67198,
      "vote_average": 7,
      "overview": "Follow the voyages of Starfleet on their missions to discover new worlds and new life forms, and one Starfleet officer who must learn that to truly understand all things alien, you must first understand yourself.",
      "poster_path": "/98RYSYsRNKWgrAAFBn0WfploUG7.jpg"
    },
    {
      "original_name": "The Right Stuff",
      "genre_ids": [
        18
      ],
      "name": "The Right Stuff",
      "popularity": 83.538,
      "origin_country": [
        "US"
      ],
      "vote_count": 2,
      "first_air_date": "2020-10-09",
      "backdrop_path": "/nYmhEtiesCu6SAZ01AQmNDDMRMH.jpg",
      "original_language": "en",
      "id": 93786,
      "vote_average": 10,
      "overview": "At the height of the Cold War, newly formed NASA selects seven of the military’s best test pilots to become astronauts. Competing to be the first in space, these men achieve the extraordinary, inspiring the world to turn towards a new horizon of ambition and hope.",
      "poster_path": "/uq2dlPtINOcJQ2tdddzuVNEm9NC.jpg"
    },
    {
      "original_name": "Bob's Burgers",
      "id": 32726,
      "name": "Bob's Burgers",
      "popularity": 62.611,
      "vote_count": 386,
      "vote_average": 7.8,
      "first_air_date": "2011-01-09",
      "poster_path": "/joPhJJblNtFDOpp6zQlx0xJWsmM.jpg",
      "genre_ids": [
        16,
        35
      ],
      "original_language": "en",
      "backdrop_path": "/rUABoTPO0OLq2wlHiFWezxpV6fo.jpg",
      "overview": "Bob's Burgers follows a third-generation restaurateur, Bob, as he runs Bob's Burgers with the help of his wife and their three kids. Bob and his quirky family have big ideas about burgers, but fall short on service and sophistication. Despite the greasy counters, lousy location and a dearth of customers, Bob and his family are determined to make Bob's Burgers \"grand re-re-re-opening\" a success.",
      "origin_country": [
        "US"
      ]
    },
    {
      "original_name": "Warrior",
      "genre_ids": [
        80,
        18,
        10759
      ],
      "name": "Warrior",
      "popularity": 58.81,
      "origin_country": [
        "US"
      ],
      "vote_count": 107,
      "first_air_date": "2019-04-05",
      "backdrop_path": "/baA21LCF2LSOrExY19e5RvTCZ1R.jpg",
      "original_language": "en",
      "id": 73544,
      "vote_average": 7.8,
      "overview": "A gritty, action-packed crime drama set during the brutal Tong Wars of San Francisco’s Chinatown in the second half of the 19th century. The series follows Ah Sahm, a martial arts prodigy who immigrates from China to San Francisco under mysterious circumstances, and becomes a hatchet man for one of Chinatown’s most powerful tongs.",
      "poster_path": "/eLPxEM7WAvljjFv4UwJ1awhANa9.jpg"
    },
    {
      "original_name": "WWE Raw",
      "genre_ids": [
        10764
      ],
      "name": "WWE Raw",
      "popularity": 46.927,
      "origin_country": [
        "US"
      ],
      "vote_count": 196,
      "first_air_date": "1993-01-11",
      "backdrop_path": "/l6ci9v4XC6DCTlZG8NiufRBx3kG.jpg",
      "original_language": "en",
      "id": 4656,
      "vote_average": 6.2,
      "overview": "A regularly scheduled, live, year-round program featuring some of the biggest WWE Superstars.",
      "poster_path": "/2bZ5c9sHbzApWVIsUoWztg43EgB.jpg"
    },
    {
      "original_name": "仮面ライダ",
      "genre_ids": [
        18,
        10759,
        10765
      ],
      "name": "Kamen Rider",
      "popularity": 49.063,
      "origin_country": [
        "JP"
      ],
      "vote_count": 45,
      "first_air_date": "1971-04-03",
      "backdrop_path": null,
      "original_language": "ja",
      "id": 2661,
      "vote_average": 4.9,
      "overview": "A Japanese anthology series centered around a man who transforms into a bug-themed superhero.",
      "poster_path": "/o57T19zgZakEpre3d9ddy1UZonp.jpg"
    },
    {
      "original_name": "Fargo",
      "genre_ids": [
        80,
        18
      ],
      "name": "Fargo",
      "popularity": 56.331,
      "origin_country": [
        "US"
      ],
      "vote_count": 1341,
      "first_air_date": "2014-04-15",
      "backdrop_path": "/xcJLhsFGVC4LVvucSqVXks2mnUJ.jpg",
      "original_language": "en",
      "id": 60622,
      "vote_average": 8.3,
      "overview": "A close-knit anthology series dealing with stories involving malice, violence and murder based in and around Minnesota.",
      "poster_path": "/9ZIhl17uFlXCNUputSEDHwZYIEJ.jpg"
    },
    {
      "original_name": "Amphibia",
      "genre_ids": [
        16,
        35,
        10759,
        10762,
        10765
      ],
      "name": "Amphibia",
      "popularity": 59.026,
      "origin_country": [
        "US"
      ],
      "vote_count": 21,
      "first_air_date": "2019-06-17",
      "backdrop_path": "/jSTglzkXYPMOI6sNdXGqGM02AP2.jpg",
      "original_language": "en",
      "id": 85349,
      "vote_average": 8.3,
      "overview": "The adventures of 13-year-old, self-centered Anne Boonchuy who is magically transported to the fictitious world of Amphibia, a rural marshland full of frog-people. With the help of an excitable young frog named Sprig, Anne will transform into a hero and discover the first true friendship of her life.",
      "poster_path": "/4eQizSNtiXLCBFyWiRivjaSw52j.jpg"
    }
  ]
}